^C:\USERS\HBJ11\DOCUMENTS\HBJ1116\COUNT\POINT\POINT.CPP
/c /ZI /JMC /nologo /W3 /WX- /diagnostics:classic /sdl /Od /Oy- /D _MBCS /Gm- /EHsc /RTC1 /MDd /GS /fp:precise /permissive- /Zc:wchar_t /Zc:forScope /Zc:inline /Fo"DEBUG\\" /Fd"DEBUG\VC141.PDB" /Gd /TP /analyze- /FC C:\USERS\HBJ11\DOCUMENTS\HBJ1116\COUNT\POINT\POINT.CPP
^C:\USERS\HBJ11\DOCUMENTS\HBJ1116\COUNT\POINT\MAIN.CPP
/c /ZI /JMC /nologo /W3 /WX- /diagnostics:classic /sdl /Od /Oy- /D _MBCS /Gm- /EHsc /RTC1 /MDd /GS /fp:precise /permissive- /Zc:wchar_t /Zc:forScope /Zc:inline /Fo"DEBUG\\" /Fd"DEBUG\VC141.PDB" /Gd /TP /analyze- /FC C:\USERS\HBJ11\DOCUMENTS\HBJ1116\COUNT\POINT\MAIN.CPP
